…
  # Scrape table from a page
  tab <- page |> html_nodes("table.items") |> html_table(fill = TRUE)
  if(is.null(tab)) {
    return(NULL)
  }
  
  # Return the table data
  return(tab[[1]])
}
scrape_transfermarkt_season(2025)
```

```
## # A tibble: 21 × 13
##      `#` wappen Club                   Club  League as at15/08/20…¹
##    <int> <lgl>  <chr>                  <chr> <chr>                 
##  1    NA NA     Total value of all cl… Tota… Total value of all cl…
##  2     1 NA     Manchester City        Prem… €1.32bn               
##  3     2 NA     Arsenal FC             Prem… €1.32bn               
##  4     3 NA     Chelsea FC             Prem… €1.17bn               
##  5     4 NA     Liverpool FC           Prem… €1.04bn               
##  6     5 NA     Tottenham Hotspur      Prem… €832.10m              
##  7     6 NA     Manchester United      Prem… €892.20m              
##  8     7 NA     Newcastle United       Prem… €689.90m              
##  9     8 NA     Nottingham Forest      Prem… €446.00m              
## 10     9 NA     Crystal Palace         Prem… €456.20m              
## # ℹ 11 more rows
## # ℹ abbreviated name: ¹​`League as at15/08/2025`
## # ℹ 8 more variables: `Value 15/08/2025` <chr>,
## #   `Squad size 15/08/2025` <chr>, `Current value` <chr>,
## #   `Current  squad size` <chr>, Difference <chr>, `%` <int>,
## #   `` <chr>, `` <chr>
```
…
```
## # A tibble: 100 × 41
##       Rk Season    Team  Comp  xG...5    MP     W     D     L   Pts
##    <dbl> <chr>     <chr> <chr>  <dbl> <dbl> <dbl> <dbl> <dbl> <dbl>
##  1     1 2020-2021 Shef… eng …   32.6    38     7     2    29    23
##  2     2 2020-2021 Crys… eng …   34.1    38    12     8    18    44
##  3     3 2020-2021 West… eng …   35.8    38     5    11    22    26
##  4     4 2020-2021 Wolv… eng …   36.5    38    12     9    17    45
##  5     5 2020-2021 Burn… eng …   39.3    38    10     9    19    39
##  6     6 2020-2021 Fulh… eng …   40.5    38     5    13    20    28
##  7     7 2020-2021 Sout… eng …   41.2    38    12     7    19    43
##  8     8 2020-2021 Newc… eng …   43.4    38    12     9    17    45
##  9     9 2020-2021 Ever… eng …   45.7    38    17     8    13    59
## 10    10 2020-2021 Brig… eng …   50.9    38     9    14    15    41
## # ℹ 90 more rows
## # ℹ 31 more variables: `Pts/MP` <dbl>, Min <dbl>, Subs <dbl>,
## #   LgRank <dbl>, GF <dbl>, GA <dbl>, GD <dbl>, Poss <dbl>,
## #   CS <dbl>, `CS%` <dbl>, `G-PK` <dbl>, PK <dbl>, PKatt <dbl>,
## #   PKm <dbl>, xG...25 <dbl>, npxG <dbl>, xGD <dbl>, npxGD <dbl>,
## #   xAG <dbl>, xA <dbl>, `G-xG` <dbl>, `np:G-xG` <dbl>,
## #   `A-xAG` <dbl>, `npxG/Sh` <dbl>, Sh <dbl>, `G/Sh` <dbl>, …
```
…
  # Combine vertically (stack rows)
  combined_data <- bind_rows(all_seasons_list)
  
  return(combined_data)
}

  transfermarkt_data <- combine_for_last_5_seasons()
  transfermarkt_data
```

```
## # A tibble: 100 × 4
##    club              squad_value squad_size season   
##    <chr>                   <dbl>      <dbl> <chr>    
##  1 Manchester City        1060           25 2020-2021
##  2 Arsenal FC              537           27 2020-2021
##  3 Chelsea FC              998           37 2020-2021
##  4 Liverpool FC            904.          32 2020-2021
##  5 Tottenham Hotspur       704           26 2020-2021
##  6 Manchester United       928.          30 2020-2021
##  7 Newcastle United        246.          26 2020-2021
##  8 Nottingham Forest        38.8         24 2020-2021
##  9 Crystal Palace          215.          24 2020-2021
## 10 Aston Villa             429.          25 2020-2021
## # ℹ 90 more rows
```
…
  return(performance_metrics)
}
# Execute the function
fbref_data <- clean_performace_metrics()
fbref_data
```

```
## # A tibble: 100 × 9
##    season    club          league_rank  npxG npxGD   xAG possession
##    <chr>     <chr>               <dbl> <dbl> <dbl> <dbl>      <dbl>
##  1 2020-2021 Sheffield Un…          20  29.5 -29.6  24.9       41.7
##  2 2020-2021 Crystal Pala…          14  31   -24.1  23.6       40.6
##  3 2020-2021 West Brom              19  32.7 -26.6  24.4       37.9
##  4 2020-2021 Wolverhampto…          13  33.4  -9.8  24.1       49.3
##  5 2020-2021 Burnley FC             17  36.9 -15.4  27.7       42.1
##  6 2020-2021 Fulham FC              18  35.9 -11.2  26.3       49.7
##  7 2020-2021 Southampton            15  36.6  -9.5  25.8       52  
##  8 2020-2021 Newcastle Un…          12  37.8 -16.6  29         38.8
##  9 2020-2021 Everton FC             10  41.9  -5    30.7       46.4
## 10 2020-2021 Brighton & H…          16  43.8  14    33.2       51.1
## # ℹ 90 more rows
## # ℹ 2 more variables: shot_conversion <dbl>, npxGA <dbl>
```
…
  # Convert season to ordered factor (chronological order)
    premier_league_data <- premier_league_data |> mutate(season = factor(season, levels = c("2020-2021", "2021-2022", "2022-2023", "2023-2024", "2024-2025"), ordered = TRUE))
    
    
  return(premier_league_data)
}

# Execute the function
data <- combine_transfermarkt_fbref()
data
```

```
## # A tibble: 82 × 11
##    club       squad_value squad_size season league_rank  npxG npxGD
##    <chr>            <dbl>      <dbl> <ord>        <dbl> <dbl> <dbl>
##  1 Mancheste…       1060          25 2020-…           1  61.2  38.9
##  2 Arsenal FC        537          27 2020-…           8  47     6.4
##  3 Chelsea FC        998          37 2020-…           4  54.5  27.4
##  4 Liverpool…        904.         32 2020-…           3  62.9  26  
##  5 Tottenham…        704          26 2020-…           7  49.2   7.9
##  6 Mancheste…        928.         30 2020-…           2  51.4  13.1
##  7 Newcastle…        246.         26 2020-…          12  37.8 -16.6
##  8 Crystal P…        215.         24 2020-…          14  31   -24.1
##  9 Aston Vil…        429.         25 2020-…          11  47.9   1.5
## 10 Brighton …        248.         30 2020-…          16  43.8  14  
## # ℹ 72 more rows
## # ℹ 4 more variables: xAG <dbl>, possession <dbl>,
## #   shot_conversion <dbl>, npxGA <dbl>
```
…
